/interface/
Hyang is a general-purpose programming and scripting language that also
provides support for a variety of mathematical and statistical analyses.
Hyang is a true computer language which contains a number of control-flow
constructions for iteration and alternation.  It allows users to add additional
functionality by defining new functions either in Hyang scripts or in a package.
.LP
Hyang will maintain a command-line history on systems which have the GNU
\fBreadline\fP(3) library, so that the commands can be recalled, edited and
re-executed.

[OPTIONS]

Hyang provides options that can control what happens at the beginning and at
the end of a Hyang session, in particular which files are being read and written,
and how much memory is reserved for the Hyang process.

[SEE ALSO]

The full Hyang documentation consists of collection of Texinfo manuals and
individual help for Hyang objects which is also available on-line.
.LP
Start Hyang and type \fB?\fP\fItopic\fP at the Hyang prompt to obtain on-line
information for `\fItopic\fP'.
.LP
If the processed manuals have been installed they will be available as
DVI and/or PDF files in the doc/manual subdirectory of the documentation
directory tree (default `hyang HYANGHOME`).
.LP
If the \fBinfo\fP program and the Hyang manuals are installed on your
system, typing 
\fBinfo -f hyang-language-concept\fP,
\fBinfo -f hyang-data\fP, 
\fBinfo -f hyang-library-reference\fP,
\fBinfo -f hyang-FAQ\fP, 
\fBinfo -f hyang-language-reference\fP and
\fBinfo -f hyang-internals\fP
should give you access to
``An Introduction to Hyang''
(the basic manual),
the ``Hyang Data Import/Export'' Guide, the ``Hyang Extension Writer's Guide'',
the ``Hyang FAQ'', the ``The Hyang Language Definition'', and the ``Hyang Internals''.
